<?xml version="1.0" encoding="UTF-8" standalone="no"?>
<!DOCTYPE svg PUBLIC "-//W3C//DTD SVG 1.1//EN"
 "http://www.w3.org/Graphics/SVG/1.1/DTD/svg11.dtd">
<!-- Generated by graphviz version 2.40.1 (20161225.0304)
 -->
<!-- Title: FlashInfoTab Pages: 1 -->
<svg width="80pt" height="46pt"
 viewBox="0.00 0.00 80.00 46.00" xmlns="http://www.w3.org/2000/svg" xmlns:xlink="http://www.w3.org/1999/xlink">
<g id="graph0" class="graph" transform="scale(1 1) rotate(0) translate(4 42)">
<title>FlashInfoTab</title>
<polygon fill="#ffffff" stroke="transparent" points="-4,4 -4,-42 76,-42 76,4 -4,4"/>
<!-- Node0 -->
<g id="node1" class="node">
<title>Node0</title>
<polygon fill="#bfbfbf" stroke="#000000" points="0,-.5 0,-19.5 72,-19.5 72,-.5 0,-.5"/>
<text text-anchor="middle" x="36" y="-7.5" font-family="Helvetica,sans-Serif" font-size="10.00" fill="#000000">FlashInfoTab</text>
</g>
<!-- Node0&#45;&gt;Node0 -->
<g id="edge1" class="edge">
<title>Node0&#45;&gt;Node0</title>
<path fill="none" stroke="#191970" d="M24.9027,-19.7571C19.504,-28.5653 23.2031,-38 36,-38 43.7981,-38 48.2178,-34.4965 49.2592,-29.7663"/>
<polygon fill="#191970" stroke="#191970" points="52.6297,-28.7927 47.0973,-19.7571 45.7875,-30.2706 52.6297,-28.7927"/>
</g>
</g>
</svg>
