<?xml version="1.0" encoding="UTF-8" standalone="no"?>
<!DOCTYPE svg PUBLIC "-//W3C//DTD SVG 1.1//EN"
 "http://www.w3.org/Graphics/SVG/1.1/DTD/svg11.dtd">
<!-- Generated by graphviz version 2.40.1 (20161225.0304)
 -->
<!-- Title: StatusChanged Pages: 1 -->
<svg width="360pt" height="162pt"
 viewBox="0.00 0.00 360.00 162.46" xmlns="http://www.w3.org/2000/svg" xmlns:xlink="http://www.w3.org/1999/xlink">
<g id="graph0" class="graph" transform="scale(1 1) rotate(0) translate(4 158.4604)">
<title>StatusChanged</title>
<polygon fill="#ffffff" stroke="transparent" points="-4,4 -4,-158.4604 356,-158.4604 356,4 -4,4"/>
<!-- Node52 -->
<g id="node1" class="node">
<title>Node52</title>
<polygon fill="#bfbfbf" stroke="#000000" points="0,-58.9604 0,-77.9604 84,-77.9604 84,-58.9604 0,-58.9604"/>
<text text-anchor="middle" x="42" y="-65.9604" font-family="Helvetica,sans-Serif" font-size="10.00" fill="#000000">StatusChanged</text>
</g>
<!-- Node53 -->
<g id="node2" class="node">
<title>Node53</title>
<g id="a_node2"><a xlink:href="class_flash_man.html#a47b2d9de8dbe03d5247255350db7d955" target="_top" xlink:title="Write">
<polygon fill="#ffffff" stroke="#000000" points="143,-134.9604 143,-153.9604 183,-153.9604 183,-134.9604 143,-134.9604"/>
<text text-anchor="middle" x="163" y="-141.9604" font-family="Helvetica,sans-Serif" font-size="10.00" fill="#000000">Write</text>
</a>
</g>
</g>
<!-- Node52&#45;&gt;Node53 -->
<g id="edge1" class="edge">
<title>Node52&#45;&gt;Node53</title>
<path fill="none" stroke="#191970" d="M63.9672,-83.779C79.4319,-94.3959 100.7292,-108.6841 120,-120.4604 128.0246,-125.3642 137.0922,-130.4849 144.8249,-134.7308"/>
<polygon fill="#191970" stroke="#191970" points="65.8131,-80.8003 55.5953,-77.9989 61.836,-86.5607 65.8131,-80.8003"/>
</g>
<!-- Node54 -->
<g id="node3" class="node">
<title>Node54</title>
<g id="a_node3"><a xlink:href="class_flash_write_tab.html#ab3be5bdb7eb6eb6614ed5e5f0d1ee870" target="_top" xlink:title="FlashWriteTab::Flash">
<polygon fill="#ffffff" stroke="#000000" points="242,-77.9604 242,-96.9604 352,-96.9604 352,-77.9604 242,-77.9604"/>
<text text-anchor="middle" x="297" y="-84.9604" font-family="Helvetica,sans-Serif" font-size="10.00" fill="#000000">FlashWriteTab::Flash</text>
</a>
</g>
</g>
<!-- Node52&#45;&gt;Node54 -->
<g id="edge9" class="edge">
<title>Node52&#45;&gt;Node54</title>
<path fill="none" stroke="#191970" d="M83.5089,-80.5165C95.2067,-83.3808 108.0126,-86.0214 120,-87.4604 160.5785,-92.3314 206.7679,-92.1412 241.7856,-90.8338"/>
<polygon fill="#191970" stroke="#191970" points="84.1185,-77.0597 73.5626,-77.9664 82.38,-83.8403 84.1185,-77.0597"/>
</g>
<!-- Node55 -->
<g id="node4" class="node">
<title>Node55</title>
<g id="a_node4"><a xlink:href="class_flash_man.html#a05a6ddef4233738cd838dda5ab625e6b" target="_top" xlink:title="Read">
<polygon fill="#ffffff" stroke="#000000" points="143,-20.9604 143,-39.9604 183,-39.9604 183,-20.9604 143,-20.9604"/>
<text text-anchor="middle" x="163" y="-27.9604" font-family="Helvetica,sans-Serif" font-size="10.00" fill="#000000">Read</text>
</a>
</g>
</g>
<!-- Node52&#45;&gt;Node55 -->
<g id="edge3" class="edge">
<title>Node52&#45;&gt;Node55</title>
<path fill="none" stroke="#191970" d="M82.1795,-55.8421C102.4904,-49.4634 126.2586,-41.999 142.7388,-36.8234"/>
<polygon fill="#191970" stroke="#191970" points="81.0253,-52.5359 72.5334,-58.8714 83.1227,-59.2143 81.0253,-52.5359"/>
</g>
<!-- Node56 -->
<g id="node5" class="node">
<title>Node56</title>
<g id="a_node5"><a xlink:href="class_flash_read_tab.html#a0140590d62fa16f882291335eadf3995" target="_top" xlink:title="FlashReadTab::Read">
<polygon fill="#ffffff" stroke="#000000" points="242.5,-1.9604 242.5,-20.9604 351.5,-20.9604 351.5,-1.9604 242.5,-1.9604"/>
<text text-anchor="middle" x="297" y="-8.9604" font-family="Helvetica,sans-Serif" font-size="10.00" fill="#000000">FlashReadTab::Read</text>
</a>
</g>
</g>
<!-- Node52&#45;&gt;Node56 -->
<g id="edge8" class="edge">
<title>Node52&#45;&gt;Node56</title>
<path fill="none" stroke="#191970" d="M58.1968,-51.7651C72.8488,-37.9526 95.7849,-19.3653 120,-11.4604 159.4363,1.4134 206.5018,.7094 242.1832,-2.8322"/>
<polygon fill="#191970" stroke="#191970" points="55.6554,-49.3549 50.9536,-58.8493 60.55,-54.3593 55.6554,-49.3549"/>
</g>
<!-- Node57 -->
<g id="node6" class="node">
<title>Node57</title>
<g id="a_node6"><a xlink:href="class_flash_man.html#af7f2f76f58948b815fe09d530ef04d6d" target="_top" xlink:title="MapperProgram">
<polygon fill="#ffffff" stroke="#000000" points="120,-58.9604 120,-77.9604 206,-77.9604 206,-58.9604 120,-58.9604"/>
<text text-anchor="middle" x="163" y="-65.9604" font-family="Helvetica,sans-Serif" font-size="10.00" fill="#000000">MapperProgram</text>
</a>
</g>
</g>
<!-- Node52&#45;&gt;Node57 -->
<g id="edge6" class="edge">
<title>Node52&#45;&gt;Node57</title>
<path fill="none" stroke="#191970" d="M94.4437,-68.4604C102.8664,-68.4604 111.5012,-68.4604 119.6793,-68.4604"/>
<polygon fill="#191970" stroke="#191970" points="94.32,-64.9605 84.3199,-68.4604 94.3199,-71.9605 94.32,-64.9605"/>
</g>
<!-- Node53&#45;&gt;Node54 -->
<g id="edge2" class="edge">
<title>Node53&#45;&gt;Node54</title>
<path fill="none" stroke="#191970" d="M192.328,-131.9851C217.0792,-121.4566 251.992,-106.6056 274.562,-97.0049"/>
<polygon fill="#191970" stroke="#191970" points="190.8932,-128.7918 183.0612,-135.9269 193.6333,-135.2333 190.8932,-128.7918"/>
</g>
<!-- Node55&#45;&gt;Node54 -->
<g id="edge5" class="edge">
<title>Node55&#45;&gt;Node54</title>
<path fill="none" stroke="#191970" d="M192.328,-42.9357C217.0792,-53.4642 251.992,-68.3152 274.562,-77.9159"/>
<polygon fill="#191970" stroke="#191970" points="193.6333,-39.6875 183.0612,-38.9939 190.8932,-46.129 193.6333,-39.6875"/>
</g>
<!-- Node55&#45;&gt;Node56 -->
<g id="edge4" class="edge">
<title>Node55&#45;&gt;Node56</title>
<path fill="none" stroke="#191970" d="M192.9855,-26.2087C207.5253,-24.1471 225.4544,-21.6049 242.3076,-19.2153"/>
<polygon fill="#191970" stroke="#191970" points="192.4707,-22.7466 183.0612,-27.6159 193.4535,-29.6773 192.4707,-22.7466"/>
</g>
<!-- Node57&#45;&gt;Node54 -->
<g id="edge7" class="edge">
<title>Node57&#45;&gt;Node54</title>
<path fill="none" stroke="#191970" d="M216.1802,-76.0009C224.5682,-77.1902 233.2583,-78.4224 241.6932,-79.6184"/>
<polygon fill="#191970" stroke="#191970" points="216.5284,-72.5153 206.136,-74.5767 215.5456,-79.446 216.5284,-72.5153"/>
</g>
</g>
</svg>
