<?xml version="1.0" encoding="UTF-8" standalone="no"?>
<!DOCTYPE svg PUBLIC "-//W3C//DTD SVG 1.1//EN"
 "http://www.w3.org/Graphics/SVG/1.1/DTD/svg11.dtd">
<!-- Generated by graphviz version 2.40.1 (20161225.0304)
 -->
<!-- Title: Read Pages: 1 -->
<svg width="194pt" height="66pt"
 viewBox="0.00 0.00 194.00 66.00" xmlns="http://www.w3.org/2000/svg" xmlns:xlink="http://www.w3.org/1999/xlink">
<g id="graph0" class="graph" transform="scale(1 1) rotate(0) translate(4 62)">
<title>Read</title>
<polygon fill="#ffffff" stroke="transparent" points="-4,4 -4,-62 190,-62 190,4 -4,4"/>
<!-- Node48 -->
<g id="node1" class="node">
<title>Node48</title>
<polygon fill="#bfbfbf" stroke="#000000" points="0,-19.5 0,-38.5 40,-38.5 40,-19.5 0,-19.5"/>
<text text-anchor="middle" x="20" y="-26.5" font-family="Helvetica,sans-Serif" font-size="10.00" fill="#000000">Read</text>
</g>
<!-- Node49 -->
<g id="node2" class="node">
<title>Node49</title>
<g id="a_node2"><a xlink:href="class_flash_read_tab.html#a0140590d62fa16f882291335eadf3995" target="_top" xlink:title="FlashReadTab::Read">
<polygon fill="#ffffff" stroke="#000000" points="76.5,-38.5 76.5,-57.5 185.5,-57.5 185.5,-38.5 76.5,-38.5"/>
<text text-anchor="middle" x="131" y="-45.5" font-family="Helvetica,sans-Serif" font-size="10.00" fill="#000000">FlashReadTab::Read</text>
</a>
</g>
</g>
<!-- Node48&#45;&gt;Node49 -->
<g id="edge1" class="edge">
<title>Node48&#45;&gt;Node49</title>
<path fill="none" stroke="#191970" d="M50.1562,-34.1619C58.2687,-35.5505 67.3011,-37.0966 76.3053,-38.6379"/>
<polygon fill="#191970" stroke="#191970" points="50.5484,-30.6782 40.1013,-32.4408 49.3674,-37.5778 50.5484,-30.6782"/>
</g>
<!-- Node50 -->
<g id="node3" class="node">
<title>Node50</title>
<g id="a_node3"><a xlink:href="class_flash_write_tab.html#ab3be5bdb7eb6eb6614ed5e5f0d1ee870" target="_top" xlink:title="FlashWriteTab::Flash">
<polygon fill="#ffffff" stroke="#000000" points="76,-.5 76,-19.5 186,-19.5 186,-.5 76,-.5"/>
<text text-anchor="middle" x="131" y="-7.5" font-family="Helvetica,sans-Serif" font-size="10.00" fill="#000000">FlashWriteTab::Flash</text>
</a>
</g>
</g>
<!-- Node48&#45;&gt;Node50 -->
<g id="edge2" class="edge">
<title>Node48&#45;&gt;Node50</title>
<path fill="none" stroke="#191970" d="M50.0262,-23.8604C58.03,-22.4904 66.9365,-20.9658 75.8315,-19.4432"/>
<polygon fill="#191970" stroke="#191970" points="49.3674,-20.4222 40.1013,-25.5592 50.5484,-27.3218 49.3674,-20.4222"/>
</g>
</g>
</svg>
