<?xml version="1.0" encoding="UTF-8" standalone="no"?>
<!DOCTYPE svg PUBLIC "-//W3C//DTD SVG 1.1//EN"
 "http://www.w3.org/Graphics/SVG/1.1/DTD/svg11.dtd">
<!-- Generated by graphviz version 2.40.1 (20161225.0304)
 -->
<!-- Title: CmdBootloader Pages: 1 -->
<svg width="409pt" height="28pt"
 viewBox="0.00 0.00 409.00 28.00" xmlns="http://www.w3.org/2000/svg" xmlns:xlink="http://www.w3.org/1999/xlink">
<g id="graph0" class="graph" transform="scale(1 1) rotate(0) translate(4 24)">
<title>CmdBootloader</title>
<polygon fill="#ffffff" stroke="transparent" points="-4,4 -4,-24 405,-24 405,4 -4,4"/>
<!-- Node2 -->
<g id="node1" class="node">
<title>Node2</title>
<polygon fill="#bfbfbf" stroke="#000000" points="0,-.5 0,-19.5 84,-19.5 84,-.5 0,-.5"/>
<text text-anchor="middle" x="42" y="-7.5" font-family="Helvetica,sans-Serif" font-size="10.00" fill="#000000">CmdBootloader</text>
</g>
<!-- Node3 -->
<g id="node2" class="node">
<title>Node3</title>
<g id="a_node2"><a xlink:href="class_flash_man.html#a011f5737d5172315aa847d4968b45d2b" target="_top" xlink:title="FlashMan::DfuBootloader">
<polygon fill="#ffffff" stroke="#000000" points="120,-.5 120,-19.5 248,-19.5 248,-.5 120,-.5"/>
<text text-anchor="middle" x="184" y="-7.5" font-family="Helvetica,sans-Serif" font-size="10.00" fill="#000000">FlashMan::DfuBootloader</text>
</a>
</g>
</g>
<!-- Node2&#45;&gt;Node3 -->
<g id="edge1" class="edge">
<title>Node2&#45;&gt;Node3</title>
<path fill="none" stroke="#191970" d="M94.4624,-10C102.7299,-10 111.358,-10 119.8539,-10"/>
<polygon fill="#191970" stroke="#191970" points="94.2203,-6.5001 84.2202,-10 94.2202,-13.5001 94.2203,-6.5001"/>
</g>
<!-- Node4 -->
<g id="node3" class="node">
<title>Node4</title>
<g id="a_node3"><a xlink:href="class_flash_info_tab.html#aa6d0a609144a56fceede47b085aa7a42" target="_top" xlink:title="FlashInfoTab::DfuEnter">
<polygon fill="#ffffff" stroke="#000000" points="284,-.5 284,-19.5 401,-19.5 401,-.5 284,-.5"/>
<text text-anchor="middle" x="342.5" y="-7.5" font-family="Helvetica,sans-Serif" font-size="10.00" fill="#000000">FlashInfoTab::DfuEnter</text>
</a>
</g>
</g>
<!-- Node3&#45;&gt;Node4 -->
<g id="edge2" class="edge">
<title>Node3&#45;&gt;Node4</title>
<path fill="none" stroke="#191970" d="M258.1025,-10C266.7522,-10 275.4839,-10 283.8833,-10"/>
<polygon fill="#191970" stroke="#191970" points="258.0112,-6.5001 248.0111,-10 258.0111,-13.5001 258.0112,-6.5001"/>
</g>
</g>
</svg>
