<?xml version="1.0" encoding="UTF-8" standalone="no"?>
<!DOCTYPE svg PUBLIC "-//W3C//DTD SVG 1.1//EN"
 "http://www.w3.org/Graphics/SVG/1.1/DTD/svg11.dtd">
<!-- Generated by graphviz version 2.40.1 (20161225.0304)
 -->
<!-- Title: CmdMapperNumMappers Pages: 1 -->
<svg width="340pt" height="66pt"
 viewBox="0.00 0.00 340.00 66.00" xmlns="http://www.w3.org/2000/svg" xmlns:xlink="http://www.w3.org/1999/xlink">
<g id="graph0" class="graph" transform="scale(1 1) rotate(0) translate(4 62)">
<title>CmdMapperNumMappers</title>
<polygon fill="#ffffff" stroke="transparent" points="-4,4 -4,-62 336,-62 336,4 -4,4"/>
<!-- Node36 -->
<g id="node1" class="node">
<title>Node36</title>
<polygon fill="#bfbfbf" stroke="#000000" points="0,-19.5 0,-38.5 128,-38.5 128,-19.5 0,-19.5"/>
<text text-anchor="middle" x="64" y="-26.5" font-family="Helvetica,sans-Serif" font-size="10.00" fill="#000000">CmdMapperNumMappers</text>
</g>
<!-- Node37 -->
<g id="node2" class="node">
<title>Node37</title>
<g id="a_node2"><a xlink:href="class_flash_write_tab.html#ab3be5bdb7eb6eb6614ed5e5f0d1ee870" target="_top" xlink:title="FlashWriteTab::Flash">
<polygon fill="#ffffff" stroke="#000000" points="193,-38.5 193,-57.5 303,-57.5 303,-38.5 193,-38.5"/>
<text text-anchor="middle" x="248" y="-45.5" font-family="Helvetica,sans-Serif" font-size="10.00" fill="#000000">FlashWriteTab::Flash</text>
</a>
</g>
</g>
<!-- Node36&#45;&gt;Node37 -->
<g id="edge1" class="edge">
<title>Node36&#45;&gt;Node37</title>
<path fill="none" stroke="#191970" d="M138.1037,-36.652C156.3327,-38.5344 175.5367,-40.5174 192.7019,-42.2899"/>
<polygon fill="#191970" stroke="#191970" points="138.4026,-33.1644 128.096,-35.6186 137.6835,-40.1273 138.4026,-33.1644"/>
</g>
<!-- Node38 -->
<g id="node3" class="node">
<title>Node38</title>
<g id="a_node3"><a xlink:href="class_flash_dialog.html#a244bb3f02eb68df57a03271d99e07b65" target="_top" xlink:title="FlashDialog::FillMapperComboBox">
<polygon fill="#ffffff" stroke="#000000" points="164,-.5 164,-19.5 332,-19.5 332,-.5 164,-.5"/>
<text text-anchor="middle" x="248" y="-7.5" font-family="Helvetica,sans-Serif" font-size="10.00" fill="#000000">FlashDialog::FillMapperComboBox</text>
</a>
</g>
</g>
<!-- Node36&#45;&gt;Node38 -->
<g id="edge2" class="edge">
<title>Node36&#45;&gt;Node38</title>
<path fill="none" stroke="#191970" d="M138.221,-21.3359C146.6215,-20.4684 155.2276,-19.5798 163.7446,-18.7003"/>
<polygon fill="#191970" stroke="#191970" points="137.6835,-17.8727 128.096,-22.3814 138.4026,-24.8356 137.6835,-17.8727"/>
</g>
</g>
</svg>
