<?xml version="1.0" encoding="UTF-8" standalone="no"?>
<!DOCTYPE svg PUBLIC "-//W3C//DTD SVG 1.1//EN"
 "http://www.w3.org/Graphics/SVG/1.1/DTD/svg11.dtd">
<!-- Generated by graphviz version 2.40.1 (20161225.0304)
 -->
<!-- Title: CmdBootloader Pages: 1 -->
<svg width="188pt" height="28pt"
 viewBox="0.00 0.00 188.00 28.00" xmlns="http://www.w3.org/2000/svg" xmlns:xlink="http://www.w3.org/1999/xlink">
<g id="graph0" class="graph" transform="scale(1 1) rotate(0) translate(4 24)">
<title>CmdBootloader</title>
<polygon fill="#ffffff" stroke="transparent" points="-4,4 -4,-24 184,-24 184,4 -4,4"/>
<!-- Node0 -->
<g id="node1" class="node">
<title>Node0</title>
<polygon fill="#bfbfbf" stroke="#000000" points="0,-.5 0,-19.5 84,-19.5 84,-.5 0,-.5"/>
<text text-anchor="middle" x="42" y="-7.5" font-family="Helvetica,sans-Serif" font-size="10.00" fill="#000000">CmdBootloader</text>
</g>
<!-- Node1 -->
<g id="node2" class="node">
<title>Node1</title>
<g id="a_node2"><a xlink:href="group__cmd.html#ga54f2de3c56b1855264dc66fe68249970" target="_top" xlink:title="CmdSend">
<polygon fill="#ffffff" stroke="#000000" points="120,-.5 120,-19.5 180,-19.5 180,-.5 120,-.5"/>
<text text-anchor="middle" x="150" y="-7.5" font-family="Helvetica,sans-Serif" font-size="10.00" fill="#000000">CmdSend</text>
</a>
</g>
</g>
<!-- Node0&#45;&gt;Node1 -->
<g id="edge1" class="edge">
<title>Node0&#45;&gt;Node1</title>
<path fill="none" stroke="#191970" d="M84.0649,-10C92.4771,-10 101.296,-10 109.6487,-10"/>
<polygon fill="#191970" stroke="#191970" points="109.9138,-13.5001 119.9137,-10 109.9137,-6.5001 109.9138,-13.5001"/>
</g>
</g>
</svg>
