<?xml version="1.0" encoding="UTF-8" standalone="no"?>
<!DOCTYPE svg PUBLIC "-//W3C//DTD SVG 1.1//EN"
 "http://www.w3.org/Graphics/SVG/1.1/DTD/svg11.dtd">
<!-- Generated by graphviz version 2.40.1 (20161225.0304)
 -->
<!-- Title: CmdWrite Pages: 1 -->
<svg width="351pt" height="66pt"
 viewBox="0.00 0.00 351.00 66.00" xmlns="http://www.w3.org/2000/svg" xmlns:xlink="http://www.w3.org/1999/xlink">
<g id="graph0" class="graph" transform="scale(1 1) rotate(0) translate(4 62)">
<title>CmdWrite</title>
<polygon fill="#ffffff" stroke="transparent" points="-4,4 -4,-62 347,-62 347,4 -4,4"/>
<!-- Node108 -->
<g id="node1" class="node">
<title>Node108</title>
<polygon fill="#bfbfbf" stroke="#000000" points="0,-19.5 0,-38.5 61,-38.5 61,-19.5 0,-19.5"/>
<text text-anchor="middle" x="30.5" y="-26.5" font-family="Helvetica,sans-Serif" font-size="10.00" fill="#000000">CmdWrite</text>
</g>
<!-- Node109 -->
<g id="node2" class="node">
<title>Node109</title>
<g id="a_node2"><a xlink:href="class_flash_man.html#a47b2d9de8dbe03d5247255350db7d955" target="_top" xlink:title="FlashMan::Write">
<polygon fill="#ffffff" stroke="#000000" points="102.5,-38.5 102.5,-57.5 191.5,-57.5 191.5,-38.5 102.5,-38.5"/>
<text text-anchor="middle" x="147" y="-45.5" font-family="Helvetica,sans-Serif" font-size="10.00" fill="#000000">FlashMan::Write</text>
</a>
</g>
</g>
<!-- Node108&#45;&gt;Node109 -->
<g id="edge1" class="edge">
<title>Node108&#45;&gt;Node109</title>
<path fill="none" stroke="#191970" d="M71.195,-35.6369C81.1915,-37.2673 91.949,-39.0217 102.1299,-40.6821"/>
<polygon fill="#191970" stroke="#191970" points="71.542,-32.1474 61.109,-33.992 70.4152,-39.0561 71.542,-32.1474"/>
</g>
<!-- Node111 -->
<g id="node4" class="node">
<title>Node111</title>
<g id="a_node4"><a xlink:href="group__main.html#ga5d25be52d9f0107759a6f897f00e27da" target="_top" xlink:title="AllocAndRamWrite">
<polygon fill="#ffffff" stroke="#000000" points="97,-.5 97,-19.5 197,-19.5 197,-.5 97,-.5"/>
<text text-anchor="middle" x="147" y="-7.5" font-family="Helvetica,sans-Serif" font-size="10.00" fill="#000000">AllocAndRamWrite</text>
</a>
</g>
</g>
<!-- Node108&#45;&gt;Node111 -->
<g id="edge3" class="edge">
<title>Node108&#45;&gt;Node111</title>
<path fill="none" stroke="#191970" d="M71.2255,-22.3581C79.4752,-21.0126 88.242,-19.5828 96.7747,-18.1913"/>
<polygon fill="#191970" stroke="#191970" points="70.4152,-18.9439 61.109,-24.008 71.542,-25.8526 70.4152,-18.9439"/>
</g>
<!-- Node110 -->
<g id="node3" class="node">
<title>Node110</title>
<g id="a_node3"><a xlink:href="class_flash_write_tab.html#ab3be5bdb7eb6eb6614ed5e5f0d1ee870" target="_top" xlink:title="FlashWriteTab::Flash">
<polygon fill="#ffffff" stroke="#000000" points="233,-38.5 233,-57.5 343,-57.5 343,-38.5 233,-38.5"/>
<text text-anchor="middle" x="288" y="-45.5" font-family="Helvetica,sans-Serif" font-size="10.00" fill="#000000">FlashWriteTab::Flash</text>
</a>
</g>
</g>
<!-- Node109&#45;&gt;Node110 -->
<g id="edge2" class="edge">
<title>Node109&#45;&gt;Node110</title>
<path fill="none" stroke="#191970" d="M201.6404,-48C211.8578,-48 222.544,-48 232.7789,-48"/>
<polygon fill="#191970" stroke="#191970" points="201.6133,-44.5001 191.6133,-48 201.6132,-51.5001 201.6133,-44.5001"/>
</g>
</g>
</svg>
